{
  "images" : [
    {
      "idiom" : "iphone",
      "scale" : "1x"
    },
    {
      "idiom" : "iphone",
      "filename" : "home_bg@2x.jpg",
      "scale" : "2x"
    },
    {
      "idiom" : "iphone",
      "filename" : "home_bg@3x.jpg",
      "scale" : "3x"
    },
    {
      "idiom" : "ipad",
      "filename" : "home_bg~ipad.jpg",
      "scale" : "1x"
    },
    {
      "idiom" : "ipad",
      "filename" : "home_bg~ipad@2x.jpg",
      "scale" : "2x"
    }
  ],
  "info" : {
    "version" : 1,
    "author" : "xcode"
  }
}